Reference, Quantity, Value, Footprint, Datasheet, FAB REF, LCSC, MOUSER, FARNELL, Distributor, Manufacture Ref, REF, ASSAMBLED
BT1 ,1,"BT RESET","Button_Switch_SMD:SW_SPST_B3U-1000P","","B3U-1000P","","","","","","",""
BT2 ,1,"BT USER","Button_Switch_SMD:SW_SPST_B3U-1000P","","B3U-1000P","","","","","","",""
C10 C11 C13 C14 C12 C4 C5 C18 C19 ,9,"100nF","Capacitor_SMD:C_0603_1608Metric","~"
C17 C16 C15 ,3,"10uF","Capacitor_SMD:C_0603_1608Metric","~","","","","","https://fr.farnell.com/murata/grm21br61c106ke15k/condensateur-10-f-16v-10-x5r-0805/dp/2611940","GRM21BR61C106KE15K","",""
C3 C1 ,2,"6pF","Capacitor_SMD:C_0603_1608Metric","~"
C6 C7 ,2,"18pF","Capacitor_SMD:C_0603_1608Metric","~"
D1 D2 ,2,"GREEN 2mA","LED_SMD:LED_0805_2012Metric","~","KPT-2012ZGC","C598372","","2217981","","","",""
H1 ,1,"MountingHole","Mounting_Holes:MountingHole_2.7mm_M2.5_Pad_Via","~"
IC2 ,1,"24CW1280T-I_OT","SamacSys_Parts:SOT95P280X145-5N","https://componentsearchengine.com/Datasheets/1/24CW1280T-I_OT.pdf","","24CW1280T-I/OT","579-24CW1280T-I/OT","","","","24CW1280T-I/OT",""
J1 ,1,"M 2","MyFootPrint:M.2_PCB","","","","571-2199119-4","2377468","","","2199119-4","NC(only footprint)"
J2 ,1,"53261-0571","SamacSys_Parts:532610571TR250","~","","C392176","538-53261-0571","1125360","","","53261-0571",""
L1 ,1,"FCB","Inductor_SMD:L_0603_1608Metric","~","BLM18PG121SN1D","C14709","81-BLM18PG121SN1D","","","","",""
R1 R3 R2 ,3,"10K","Resistor_SMD:R_0603_1608Metric","~"
R6 R7 ,2,"750","Resistor_SMD:R_0603_1608Metric","~"
R8 R10 R9 ,3,"10k","Resistor_SMD:R_0603_1608Metric","~"
U1 ,1,"STM32F070CBTx","Housings_QFP:LQFP-48_7x7mm_Pitch0.5mm","http://www.st.com/st-web-ui/static/active/en/resource/technical/document/datasheet/DM00141386.pdf","STM32F030CCTx","C74909","","2750627","","","",""
U2 ,1,"MCP1812BT-033/TT ","TO_SOT_Packages_SMD:SOT-23","http://www.ti.com/lit/ds/symlink/lm3480.pdf","MCP1812BT-033/TT","","MCP1812BT-033/TT ","","","","",""
U3 ,1,"W25X40CLUXIG","MyFootPrint:USON8","","","C401661","454-W25X40CLUXIGTR","","","","W25X40CLUXIG TR",""
Y1 ,1,"32.786Khz","MyFootPrint:OSCI_3_2_X1_5","~","ABS07-32.768KHZ-T","C130253","815-ABS07-32.768KHZT","","","","",""
Y2 ,1,"24MHz","MyFootPrint:OSC_4P_2x1_6","~","XRCGB24M000F3M00R0","C127895","81-XRCGB24M000F3G0R0","","","","",""