(kicad_sch (version 20201015) (generator eeschema)

  (paper "A4")

  (title_block
    (title "IZIRUNF0")
    (date "2021-01-02")
    (rev "A")
    (company "IZITRON")
  )

  (lib_symbols
    (symbol "button_switch:B_Push" (pin_names (offset 1.016)) (in_bom yes) (on_board yes)
      (property "Reference" "U" (id 0) (at 0 6.35 0)
        (effects (font (size 1.524 1.524)))
      )
      (property "Value" "B_Push" (id 1) (at 0 -2.54 0)
        (effects (font (size 1.524 1.524)))
      )
      (property "Footprint" "" (id 2) (at 0 0 0)
        (effects (font (size 1.524 1.524)) hide)
      )
      (property "Datasheet" "" (id 3) (at 0 0 0)
        (effects (font (size 1.524 1.524)) hide)
      )
      (symbol "B_Push_0_1"
        (polyline
          (pts
            (xy -1.27 1.27)
            (xy 0 2.54)
          )
          (stroke (width 0)) (fill (type none))
        )
        (polyline
          (pts
            (xy -1.27 1.27)
            (xy -1.27 0)
            (xy -3.81 0)
          )
          (stroke (width 0)) (fill (type none))
        )
        (polyline
          (pts
            (xy 1.27 1.27)
            (xy 1.27 0)
            (xy 3.81 0)
          )
          (stroke (width 0)) (fill (type none))
        )
        (polyline
          (pts
            (xy -3.81 1.27)
            (xy 3.81 1.27)
            (xy 3.81 2.54)
            (xy 1.27 2.54)
            (xy 1.27 3.81)
            (xy -1.27 3.81)
            (xy -1.27 2.54)
            (xy -3.81 2.54)
            (xy -3.81 1.27)
          )
          (stroke (width 0)) (fill (type none))
        )
      )
      (symbol "B_Push_1_1"
        (pin passive line (at -6.35 0 0) (length 2.54)
          (name "~" (effects (font (size 1.27 1.27))))
          (number "1" (effects (font (size 1.27 1.27))))
        )
        (pin passive line (at 6.35 0 180) (length 2.54)
          (name "~" (effects (font (size 1.27 1.27))))
          (number "2" (effects (font (size 1.27 1.27))))
        )
      )
    )
    (symbol "device:C_Small" (pin_numbers hide) (pin_names (offset 0.254) hide) (in_bom yes) (on_board yes)
      (property "Reference" "C" (id 0) (at 0.254 1.778 0)
        (effects (font (size 1.27 1.27)) (justify left))
      )
      (property "Value" "C_Small" (id 1) (at 0.254 -2.032 0)
        (effects (font (size 1.27 1.27)) (justify left))
      )
      (property "Footprint" "" (id 2) (at 0 0 0)
        (effects (font (size 1.27 1.27)) hide)
      )
      (property "Datasheet" "~" (id 3) (at 0 0 0)
        (effects (font (size 1.27 1.27)) hide)
      )
      (property "ki_keywords" "capacitor cap" (id 4) (at 0 0 0)
        (effects (font (size 1.27 1.27)) hide)
      )
      (property "ki_description" "Unpolarized capacitor, small symbol" (id 5) (at 0 0 0)
        (effects (font (size 1.27 1.27)) hide)
      )
      (property "ki_fp_filters" "C_*" (id 6) (at 0 0 0)
        (effects (font (size 1.27 1.27)) hide)
      )
      (symbol "C_Small_0_1"
        (polyline
          (pts
            (xy -1.524 -0.508)
            (xy 1.524 -0.508)
          )
          (stroke (width 0.3302)) (fill (type none))
        )
        (polyline
          (pts
            (xy -1.524 0.508)
            (xy 1.524 0.508)
          )
          (stroke (width 0.3048)) (fill (type none))
        )
      )
      (symbol "C_Small_1_1"
        (pin passive line (at 0 2.54 270) (length 2.032)
          (name "~" (effects (font (size 1.27 1.27))))
          (number "1" (effects (font (size 1.27 1.27))))
        )
        (pin passive line (at 0 -2.54 90) (length 2.032)
          (name "~" (effects (font (size 1.27 1.27))))
          (number "2" (effects (font (size 1.27 1.27))))
        )
      )
    )
    (symbol "device:Crystal_GND2_Small" (pin_names (offset 1.016) hide) (in_bom yes) (on_board yes)
      (property "Reference" "Y" (id 0) (at 0 5.08 0)
        (effects (font (size 1.27 1.27)))
      )
      (property "Value" "Crystal_GND2_Small" (id 1) (at 0 3.175 0)
        (effects (font (size 1.27 1.27)))
      )
      (property "Footprint" "" (id 2) (at 0 0 0)
        (effects (font (size 1.27 1.27)) hide)
      )
      (property "Datasheet" "~" (id 3) (at 0 0 0)
        (effects (font (size 1.27 1.27)) hide)
      )
      (property "ki_keywords" "quartz ceramic resonator oscillator" (id 4) (at 0 0 0)
        (effects (font (size 1.27 1.27)) hide)
      )
      (property "ki_description" "Three pin crystal, GND on pin 2, small symbol" (id 5) (at 0 0 0)
        (effects (font (size 1.27 1.27)) hide)
      )
      (property "ki_fp_filters" "Crystal*" (id 6) (at 0 0 0)
        (effects (font (size 1.27 1.27)) hide)
      )
      (symbol "Crystal_GND2_Small_0_1"
        (rectangle (start -0.762 -1.524) (end 0.762 1.524)
          (stroke (width 0)) (fill (type none))
        )
        (polyline
          (pts
            (xy -1.27 -0.762)
            (xy -1.27 0.762)
          )
          (stroke (width 0.381)) (fill (type none))
        )
        (polyline
          (pts
            (xy 1.27 -0.762)
            (xy 1.27 0.762)
          )
          (stroke (width 0.381)) (fill (type none))
        )
        (polyline
          (pts
            (xy -1.27 -1.27)
            (xy -1.27 -1.905)
            (xy 1.27 -1.905)
            (xy 1.27 -1.27)
          )
          (stroke (width 0)) (fill (type none))
        )
      )
      (symbol "Crystal_GND2_Small_1_1"
        (pin passive line (at -2.54 0 0) (length 1.27)
          (name "1" (effects (font (size 1.27 1.27))))
          (number "1" (effects (font (size 0.762 0.762))))
        )
        (pin passive line (at 0 -2.54 90) (length 0.635)
          (name "2" (effects (font (size 1.27 1.27))))
          (number "2" (effects (font (size 0.762 0.762))))
        )
        (pin passive line (at 2.54 0 180) (length 1.27)
          (name "3" (effects (font (size 1.27 1.27))))
          (number "3" (effects (font (size 0.762 0.762))))
        )
      )
    )
    (symbol "device:Crystal_Small" (pin_numbers hide) (pin_names (offset 1.016) hide) (in_bom yes) (on_board yes)
      (property "Reference" "Y" (id 0) (at 0 2.54 0)
        (effects (font (size 1.27 1.27)))
      )
      (property "Value" "Crystal_Small" (id 1) (at 0 -2.54 0)
        (effects (font (size 1.27 1.27)))
      )
      (property "Footprint" "" (id 2) (at 0 0 0)
        (effects (font (size 1.27 1.27)) hide)
      )
      (property "Datasheet" "~" (id 3) (at 0 0 0)
        (effects (font (size 1.27 1.27)) hide)
      )
      (property "ki_keywords" "quartz ceramic resonator oscillator" (id 4) (at 0 0 0)
        (effects (font (size 1.27 1.27)) hide)
      )
      (property "ki_description" "Two pin crystal, small symbol" (id 5) (at 0 0 0)
        (effects (font (size 1.27 1.27)) hide)
      )
      (property "ki_fp_filters" "Crystal*" (id 6) (at 0 0 0)
        (effects (font (size 1.27 1.27)) hide)
      )
      (symbol "Crystal_Small_0_1"
        (rectangle (start -0.762 -1.524) (end 0.762 1.524)
          (stroke (width 0)) (fill (type none))
        )
        (polyline
          (pts
            (xy -1.27 -0.762)
            (xy -1.27 0.762)
          )
          (stroke (width 0.381)) (fill (type none))
        )
        (polyline
          (pts
            (xy 1.27 -0.762)
            (xy 1.27 0.762)
          )
          (stroke (width 0.381)) (fill (type none))
        )
      )
      (symbol "Crystal_Small_1_1"
        (pin passive line (at -2.54 0 0) (length 1.27)
          (name "1" (effects (font (size 1.27 1.27))))
          (number "1" (effects (font (size 1.27 1.27))))
        )
        (pin passive line (at 2.54 0 180) (length 1.27)
          (name "2" (effects (font (size 1.27 1.27))))
          (number "2" (effects (font (size 1.27 1.27))))
        )
      )
    )
    (symbol "device:Ferrite_Bead_Small" (pin_numbers hide) (pin_names (offset 0)) (in_bom yes) (on_board yes)
      (property "Reference" "FB" (id 0) (at 1.905 1.27 0)
        (effects (font (size 1.27 1.27)) (justify left))
      )
      (property "Value" "Ferrite_Bead_Small" (id 1) (at 1.905 -1.27 0)
        (effects (font (size 1.27 1.27)) (justify left))
      )
      (property "Footprint" "" (id 2) (at -1.778 0 90)
        (effects (font (size 1.27 1.27)) hide)
      )
      (property "Datasheet" "~" (id 3) (at 0 0 0)
        (effects (font (size 1.27 1.27)) hide)
      )
      (property "ki_keywords" "L ferrite bead inductor filter" (id 4) (at 0 0 0)
        (effects (font (size 1.27 1.27)) hide)
      )
      (property "ki_description" "Ferrite bead, small symbol" (id 5) (at 0 0 0)
        (effects (font (size 1.27 1.27)) hide)
      )
      (property "ki_fp_filters" "Inductor_* L_* *Ferrite*" (id 6) (at 0 0 0)
        (effects (font (size 1.27 1.27)) hide)
      )
      (symbol "Ferrite_Bead_Small_0_1"
        (polyline
          (pts
            (xy 0 -1.27)
            (xy 0 -0.7874)
          )
          (stroke (width 0)) (fill (type none))
        )
        (polyline
          (pts
            (xy 0 0.889)
            (xy 0 1.2954)
          )
          (stroke (width 0)) (fill (type none))
        )
        (polyline
          (pts
            (xy -1.8288 0.2794)
            (xy -1.1176 1.4986)
            (xy 1.8288 -0.2032)
            (xy 1.1176 -1.4224)
            (xy -1.8288 0.2794)
          )
          (stroke (width 0)) (fill (type none))
        )
      )
      (symbol "Ferrite_Bead_Small_1_1"
        (pin passive line (at 0 2.54 270) (length 1.27)
          (name "~" (effects (font (size 1.27 1.27))))
          (number "1" (effects (font (size 1.27 1.27))))
        )
        (pin passive line (at 0 -2.54 90) (length 1.27)
          (name "~" (effects (font (size 1.27 1.27))))
          (number "2" (effects (font (size 1.27 1.27))))
        )
      )
    )
    (symbol "device:LED_Small" (pin_numbers hide) (pin_names (offset 0.254) hide) (in_bom yes) (on_board yes)
      (property "Reference" "D" (id 0) (at -1.27 3.175 0)
        (effects (font (size 1.27 1.27)) (justify left))
      )
      (property "Value" "LED_Small" (id 1) (at -4.445 -2.54 0)
        (effects (font (size 1.27 1.27)) (justify left))
      )
      (property "Footprint" "" (id 2) (at 0 0 90)
        (effects (font (size 1.27 1.27)) hide)
      )
      (property "Datasheet" "~" (id 3) (at 0 0 90)
        (effects (font (size 1.27 1.27)) hide)
      )
      (property "ki_keywords" "LED diode light-emitting-diode" (id 4) (at 0 0 0)
        (effects (font (size 1.27 1.27)) hide)
      )
      (property "ki_description" "Light emitting diode, small symbol" (id 5) (at 0 0 0)
        (effects (font (size 1.27 1.27)) hide)
      )
      (property "ki_fp_filters" "LED* LED_SMD:* LED_THT:*" (id 6) (at 0 0 0)
        (effects (font (size 1.27 1.27)) hide)
      )
      (symbol "LED_Small_0_1"
        (polyline
          (pts
            (xy -0.762 -1.016)
            (xy -0.762 1.016)
          )
          (stroke (width 0.254)) (fill (type none))
        )
        (polyline
          (pts
            (xy 1.016 0)
            (xy -0.762 0)
          )
          (stroke (width 0)) (fill (type none))
        )
        (polyline
          (pts
            (xy 0.762 -1.016)
            (xy -0.762 0)
            (xy 0.762 1.016)
            (xy 0.762 -1.016)
          )
          (stroke (width 0.254)) (fill (type none))
        )
        (polyline
          (pts
            (xy 0 0.762)
            (xy -0.508 1.27)
            (xy -0.254 1.27)
            (xy -0.508 1.27)
            (xy -0.508 1.016)
          )
          (stroke (width 0)) (fill (type none))
        )
        (polyline
          (pts
            (xy 0.508 1.27)
            (xy 0 1.778)
            (xy 0.254 1.778)
            (xy 0 1.778)
            (xy 0 1.524)
          )
          (stroke (width 0)) (fill (type none))
        )
      )
      (symbol "LED_Small_1_1"
        (pin passive line (at -2.54 0 0) (length 1.778)
          (name "K" (effects (font (size 1.27 1.27))))
          (number "1" (effects (font (size 1.27 1.27))))
        )
        (pin passive line (at 2.54 0 180) (length 1.778)
          (name "A" (effects (font (size 1.27 1.27))))
          (number "2" (effects (font (size 1.27 1.27))))
        )
      )
    )
    (symbol "device:R_Small" (pin_numbers hide) (pin_names (offset 0.254) hide) (in_bom yes) (on_board yes)
      (property "Reference" "R" (id 0) (at 0.762 0.508 0)
        (effects (font (size 1.27 1.27)) (justify left))
      )
      (property "Value" "R_Small" (id 1) (at 0.762 -1.016 0)
        (effects (font (size 1.27 1.27)) (justify left))
      )
      (property "Footprint" "" (id 2) (at 0 0 0)
        (effects (font (size 1.27 1.27)) hide)
      )
      (property "Datasheet" "~" (id 3) (at 0 0 0)
        (effects (font (size 1.27 1.27)) hide)
      )
      (property "ki_keywords" "R resistor" (id 4) (at 0 0 0)
        (effects (font (size 1.27 1.27)) hide)
      )
      (property "ki_description" "Resistor, small symbol" (id 5) (at 0 0 0)
        (effects (font (size 1.27 1.27)) hide)
      )
      (property "ki_fp_filters" "R_*" (id 6) (at 0 0 0)
        (effects (font (size 1.27 1.27)) hide)
      )
      (symbol "R_Small_0_1"
        (rectangle (start -0.762 1.778) (end 0.762 -1.778)
          (stroke (width 0.2032)) (fill (type none))
        )
      )
      (symbol "R_Small_1_1"
        (pin passive line (at 0 2.54 270) (length 0.762)
          (name "~" (effects (font (size 1.27 1.27))))
          (number "1" (effects (font (size 1.27 1.27))))
        )
        (pin passive line (at 0 -2.54 90) (length 0.762)
          (name "~" (effects (font (size 1.27 1.27))))
          (number "2" (effects (font (size 1.27 1.27))))
        )
      )
    )
    (symbol "izirunf0-rescue:STM32F070CBTx-stm32" (pin_names (offset 1.016)) (in_bom yes) (on_board yes)
      (property "Reference" "U" (id 0) (at -71.12 41.275 0)
        (effects (font (size 1.27 1.27)) (justify left bottom))
      )
      (property "Value" "STM32F070CBTx-stm32" (id 1) (at 71.12 41.275 0)
        (effects (font (size 1.27 1.27)) (justify right bottom))
      )
      (property "Footprint" "Housings_QFP:LQFP-48_7x7mm_Pitch0.5mm" (id 2) (at 71.12 40.005 0)
        (effects (font (size 1.27 1.27)) (justify right top) hide)
      )
      (property "Datasheet" "" (id 3) (at 0 0 0)
        (effects (font (size 1.27 1.27)) hide)
      )
      (property "ki_locked" "" (id 4) (at 0 0 0)
        (effects (font (size 1.27 1.27)))
      )
      (symbol "STM32F070CBTx-stm32_0_1"
        (rectangle (start -71.12 -40.64) (end 71.12 40.64)
          (stroke (width 0.254)) (fill (type background))
        )
      )
      (symbol "STM32F070CBTx-stm32_1_1"
        (pin power_in line (at -5.08 43.18 270) (length 2.54)
          (name "VDD" (effects (font (size 1.27 1.27))))
          (number "1" (effects (font (size 1.27 1.27))))
        )
        (pin bidirectional line (at 73.66 5.08 180) (length 2.54)
          (name "ADC_IN0/RTC_TAMP2/SYS_WKUP1/USART2_CTS/USART4_TX/PA0" (effects (font (size 1.27 1.27))))
          (number "10" (effects (font (size 1.27 1.27))))
        )
        (pin bidirectional line (at 73.66 2.54 180) (length 2.54)
          (name "ADC_IN1/TIM15_CH1N/USART2_DE/USART2_RTS/USART4_RX/PA1" (effects (font (size 1.27 1.27))))
          (number "11" (effects (font (size 1.27 1.27))))
        )
        (pin bidirectional line (at 73.66 0 180) (length 2.54)
          (name "ADC_IN2/SYS_WKUP4/TIM15_CH1/USART2_TX/PA2" (effects (font (size 1.27 1.27))))
          (number "12" (effects (font (size 1.27 1.27))))
        )
        (pin bidirectional line (at 73.66 -2.54 180) (length 2.54)
          (name "ADC_IN3/TIM15_CH2/USART2_RX/PA3" (effects (font (size 1.27 1.27))))
          (number "13" (effects (font (size 1.27 1.27))))
        )
        (pin bidirectional line (at 73.66 -5.08 180) (length 2.54)
          (name "ADC_IN4/SPI1_NSS/TIM14_CH1/USART2_CK/PA4" (effects (font (size 1.27 1.27))))
          (number "14" (effects (font (size 1.27 1.27))))
        )
        (pin bidirectional line (at 73.66 -7.62 180) (length 2.54)
          (name "ADC_IN5/SPI1_SCK/PA5" (effects (font (size 1.27 1.27))))
          (number "15" (effects (font (size 1.27 1.27))))
        )
        (pin bidirectional line (at 73.66 -10.16 180) (length 2.54)
          (name "ADC_IN6/SPI1_MISO/TIM16_CH1/TIM1_BKIN/TIM3_CH1/USART3_CTS/PA6" (effects (font (size 1.27 1.27))))
          (number "16" (effects (font (size 1.27 1.27))))
        )
        (pin bidirectional line (at 73.66 -12.7 180) (length 2.54)
          (name "ADC_IN7/SPI1_MOSI/TIM14_CH1/TIM17_CH1/TIM1_CH1N/TIM3_CH2/PA7" (effects (font (size 1.27 1.27))))
          (number "17" (effects (font (size 1.27 1.27))))
        )
        (pin bidirectional line (at -73.66 5.08 0) (length 2.54)
          (name "PB0/ADC_IN8/TIM1_CH2N/TIM3_CH3/USART3_CK" (effects (font (size 1.27 1.27))))
          (number "18" (effects (font (size 1.27 1.27))))
        )
        (pin bidirectional line (at -73.66 2.54 0) (length 2.54)
          (name "PB1/ADC_IN9/TIM14_CH1/TIM1_CH3N/TIM3_CH4/USART3_DE/USART3_RTS" (effects (font (size 1.27 1.27))))
          (number "19" (effects (font (size 1.27 1.27))))
        )
        (pin bidirectional line (at -73.66 15.24 0) (length 2.54)
          (name "PC13/RTC_OUT_ALARM/RTC_OUT_CALIB/RTC_TAMP1/RTC_TS/SYS_WKUP2" (effects (font (size 1.27 1.27))))
          (number "2" (effects (font (size 1.27 1.27))))
        )
        (pin bidirectional line (at -73.66 0 0) (length 2.54)
          (name "PB2" (effects (font (size 1.27 1.27))))
          (number "20" (effects (font (size 1.27 1.27))))
        )
        (pin bidirectional line (at -73.66 -20.32 0) (length 2.54)
          (name "PB10/I2C2_SCL/SPI2_SCK/USART3_TX" (effects (font (size 1.27 1.27))))
          (number "21" (effects (font (size 1.27 1.27))))
        )
        (pin bidirectional line (at -73.66 -22.86 0) (length 2.54)
          (name "PB11/I2C2_SDA/USART3_RX" (effects (font (size 1.27 1.27))))
          (number "22" (effects (font (size 1.27 1.27))))
        )
        (pin power_in line (at -5.08 -43.18 90) (length 2.54)
          (name "VSS" (effects (font (size 1.27 1.27))))
          (number "23" (effects (font (size 1.27 1.27))))
        )
        (pin power_in line (at -2.54 43.18 270) (length 2.54)
          (name "VDD" (effects (font (size 1.27 1.27))))
          (number "24" (effects (font (size 1.27 1.27))))
        )
        (pin bidirectional line (at -73.66 -25.4 0) (length 2.54)
          (name "PB12/SPI2_NSS/TIM15_BKIN/TIM1_BKIN/USART3_CK" (effects (font (size 1.27 1.27))))
          (number "25" (effects (font (size 1.27 1.27))))
        )
        (pin bidirectional line (at -73.66 -27.94 0) (length 2.54)
          (name "PB13/I2C2_SCL/SPI2_SCK/TIM1_CH1N/USART3_CTS" (effects (font (size 1.27 1.27))))
          (number "26" (effects (font (size 1.27 1.27))))
        )
        (pin bidirectional line (at -73.66 -30.48 0) (length 2.54)
          (name "PB14/I2C2_SDA/SPI2_MISO/TIM15_CH1/TIM1_CH2N/USART3_DE/USART3_RTS" (effects (font (size 1.27 1.27))))
          (number "27" (effects (font (size 1.27 1.27))))
        )
        (pin bidirectional line (at -73.66 -33.02 0) (length 2.54)
          (name "PB15/RTC_REFIN/SPI2_MOSI/SYS_WKUP7/TIM15_CH1N/TIM15_CH2/TIM1_CH3N" (effects (font (size 1.27 1.27))))
          (number "28" (effects (font (size 1.27 1.27))))
        )
        (pin bidirectional line (at 73.66 -15.24 180) (length 2.54)
          (name "RCC_MCO/TIM1_CH1/USART1_CK/PA8" (effects (font (size 1.27 1.27))))
          (number "29" (effects (font (size 1.27 1.27))))
        )
        (pin bidirectional line (at -73.66 12.7 0) (length 2.54)
          (name "PC14/RCC_OSC32_IN" (effects (font (size 1.27 1.27))))
          (number "3" (effects (font (size 1.27 1.27))))
        )
        (pin bidirectional line (at 73.66 -17.78 180) (length 2.54)
          (name "TIM15_BKIN/TIM1_CH2/USART1_TX/PA9" (effects (font (size 1.27 1.27))))
          (number "30" (effects (font (size 1.27 1.27))))
        )
        (pin bidirectional line (at 73.66 -20.32 180) (length 2.54)
          (name "TIM17_BKIN/TIM1_CH3/USART1_RX/PA10" (effects (font (size 1.27 1.27))))
          (number "31" (effects (font (size 1.27 1.27))))
        )
        (pin bidirectional line (at 73.66 -22.86 180) (length 2.54)
          (name "TIM1_CH4/USART1_CTS/USB_DM/PA11" (effects (font (size 1.27 1.27))))
          (number "32" (effects (font (size 1.27 1.27))))
        )
        (pin bidirectional line (at 73.66 -25.4 180) (length 2.54)
          (name "TIM1_ETR/USART1_DE/USART1_RTS/USB_DP/PA12" (effects (font (size 1.27 1.27))))
          (number "33" (effects (font (size 1.27 1.27))))
        )
        (pin bidirectional line (at 73.66 -27.94 180) (length 2.54)
          (name "IR_OUT/SYS_SWDIO/USB_OE/PA13" (effects (font (size 1.27 1.27))))
          (number "34" (effects (font (size 1.27 1.27))))
        )
        (pin power_in line (at -2.54 -43.18 90) (length 2.54)
          (name "VSS" (effects (font (size 1.27 1.27))))
          (number "35" (effects (font (size 1.27 1.27))))
        )
        (pin power_in line (at 0 43.18 270) (length 2.54)
          (name "VDD" (effects (font (size 1.27 1.27))))
          (number "36" (effects (font (size 1.27 1.27))))
        )
        (pin bidirectional line (at 73.66 -30.48 180) (length 2.54)
          (name "SYS_SWCLK/USART2_TX/PA14" (effects (font (size 1.27 1.27))))
          (number "37" (effects (font (size 1.27 1.27))))
        )
        (pin bidirectional line (at 73.66 -33.02 180) (length 2.54)
          (name "SPI1_NSS/USART2_RX/USART4_DE/USART4_RTS/PA15" (effects (font (size 1.27 1.27))))
          (number "38" (effects (font (size 1.27 1.27))))
        )
        (pin bidirectional line (at -73.66 -2.54 0) (length 2.54)
          (name "PB3/SPI1_SCK" (effects (font (size 1.27 1.27))))
          (number "39" (effects (font (size 1.27 1.27))))
        )
        (pin bidirectional line (at -73.66 10.16 0) (length 2.54)
          (name "PC15/RCC_OSC32_OUT" (effects (font (size 1.27 1.27))))
          (number "4" (effects (font (size 1.27 1.27))))
        )
        (pin bidirectional line (at -73.66 -5.08 0) (length 2.54)
          (name "PB4/SPI1_MISO/TIM17_BKIN/TIM3_CH1" (effects (font (size 1.27 1.27))))
          (number "40" (effects (font (size 1.27 1.27))))
        )
        (pin bidirectional line (at -73.66 -7.62 0) (length 2.54)
          (name "PB5/I2C1_SMBA/SPI1_MOSI/SYS_WKUP6/TIM16_BKIN/TIM3_CH2" (effects (font (size 1.27 1.27))))
          (number "41" (effects (font (size 1.27 1.27))))
        )
        (pin bidirectional line (at -73.66 -10.16 0) (length 2.54)
          (name "PB6/I2C1_SCL/TIM16_CH1N/USART1_TX" (effects (font (size 1.27 1.27))))
          (number "42" (effects (font (size 1.27 1.27))))
        )
        (pin bidirectional line (at -73.66 -12.7 0) (length 2.54)
          (name "PB7/I2C1_SDA/TIM17_CH1N/USART1_RX/USART4_CTS" (effects (font (size 1.27 1.27))))
          (number "43" (effects (font (size 1.27 1.27))))
        )
        (pin input line (at -73.66 27.94 0) (length 2.54)
          (name "BOOT0" (effects (font (size 1.27 1.27))))
          (number "44" (effects (font (size 1.27 1.27))))
        )
        (pin bidirectional line (at -73.66 -15.24 0) (length 2.54)
          (name "PB8/I2C1_SCL/TIM16_CH1" (effects (font (size 1.27 1.27))))
          (number "45" (effects (font (size 1.27 1.27))))
        )
        (pin bidirectional line (at -73.66 -17.78 0) (length 2.54)
          (name "PB9/I2C1_SDA/IR_OUT/SPI2_NSS/TIM17_CH1" (effects (font (size 1.27 1.27))))
          (number "46" (effects (font (size 1.27 1.27))))
        )
        (pin power_in line (at 0 -43.18 90) (length 2.54)
          (name "VSS" (effects (font (size 1.27 1.27))))
          (number "47" (effects (font (size 1.27 1.27))))
        )
        (pin power_in line (at 2.54 43.18 270) (length 2.54)
          (name "VDD" (effects (font (size 1.27 1.27))))
          (number "48" (effects (font (size 1.27 1.27))))
        )
        (pin input line (at -73.66 22.86 0) (length 2.54)
          (name "PF0/RCC_OSC_IN" (effects (font (size 1.27 1.27))))
          (number "5" (effects (font (size 1.27 1.27))))
        )
        (pin input line (at -73.66 20.32 0) (length 2.54)
          (name "PF1/RCC_OSC_OUT" (effects (font (size 1.27 1.27))))
          (number "6" (effects (font (size 1.27 1.27))))
        )
        (pin input line (at -73.66 33.02 0) (length 2.54)
          (name "NRST" (effects (font (size 1.27 1.27))))
          (number "7" (effects (font (size 1.27 1.27))))
        )
        (pin power_in line (at 2.54 -43.18 90) (length 2.54)
          (name "VSSA" (effects (font (size 1.27 1.27))))
          (number "8" (effects (font (size 1.27 1.27))))
        )
        (pin power_in line (at 5.08 43.18 270) (length 2.54)
          (name "VDDA" (effects (font (size 1.27 1.27))))
          (number "9" (effects (font (size 1.27 1.27))))
        )
      )
    )
    (symbol "power:+3.3V" (power) (pin_names (offset 0)) (in_bom yes) (on_board yes)
      (property "Reference" "#PWR" (id 0) (at 0 -3.81 0)
        (effects (font (size 1.27 1.27)) hide)
      )
      (property "Value" "+3.3V" (id 1) (at 0 3.556 0)
        (effects (font (size 1.27 1.27)))
      )
      (property "Footprint" "" (id 2) (at 0 0 0)
        (effects (font (size 1.27 1.27)) hide)
      )
      (property "Datasheet" "" (id 3) (at 0 0 0)
        (effects (font (size 1.27 1.27)) hide)
      )
      (property "ki_keywords" "power-flag" (id 4) (at 0 0 0)
        (effects (font (size 1.27 1.27)) hide)
      )
      (property "ki_description" "Power symbol creates a global label with name \"+3.3V\"" (id 5) (at 0 0 0)
        (effects (font (size 1.27 1.27)) hide)
      )
      (symbol "+3.3V_0_1"
        (polyline
          (pts
            (xy -0.762 1.27)
            (xy 0 2.54)
          )
          (stroke (width 0)) (fill (type none))
        )
        (polyline
          (pts
            (xy 0 0)
            (xy 0 2.54)
          )
          (stroke (width 0)) (fill (type none))
        )
        (polyline
          (pts
            (xy 0 2.54)
            (xy 0.762 1.27)
          )
          (stroke (width 0)) (fill (type none))
        )
      )
      (symbol "+3.3V_1_1"
        (pin power_in line (at 0 0 90) (length 0) hide
          (name "+3V3" (effects (font (size 1.27 1.27))))
          (number "1" (effects (font (size 1.27 1.27))))
        )
      )
    )
    (symbol "power:GND" (power) (pin_names (offset 0)) (in_bom yes) (on_board yes)
      (property "Reference" "#PWR" (id 0) (at 0 -6.35 0)
        (effects (font (size 1.27 1.27)) hide)
      )
      (property "Value" "GND" (id 1) (at 0 -3.81 0)
        (effects (font (size 1.27 1.27)))
      )
      (property "Footprint" "" (id 2) (at 0 0 0)
        (effects (font (size 1.27 1.27)) hide)
      )
      (property "Datasheet" "" (id 3) (at 0 0 0)
        (effects (font (size 1.27 1.27)) hide)
      )
      (property "ki_keywords" "power-flag" (id 4) (at 0 0 0)
        (effects (font (size 1.27 1.27)) hide)
      )
      (property "ki_description" "Power symbol creates a global label with name \"GND\" , ground" (id 5) (at 0 0 0)
        (effects (font (size 1.27 1.27)) hide)
      )
      (symbol "GND_0_1"
        (polyline
          (pts
            (xy 0 0)
            (xy 0 -1.27)
            (xy 1.27 -1.27)
            (xy 0 -2.54)
            (xy -1.27 -1.27)
            (xy 0 -1.27)
          )
          (stroke (width 0)) (fill (type none))
        )
      )
      (symbol "GND_1_1"
        (pin power_in line (at 0 0 270) (length 0) hide
          (name "GND" (effects (font (size 1.27 1.27))))
          (number "1" (effects (font (size 1.27 1.27))))
        )
      )
    )
    (symbol "power:PWR_FLAG" (power) (pin_numbers hide) (pin_names (offset 0) hide) (in_bom yes) (on_board yes)
      (property "Reference" "#FLG" (id 0) (at 0 1.905 0)
        (effects (font (size 1.27 1.27)) hide)
      )
      (property "Value" "PWR_FLAG" (id 1) (at 0 3.81 0)
        (effects (font (size 1.27 1.27)))
      )
      (property "Footprint" "" (id 2) (at 0 0 0)
        (effects (font (size 1.27 1.27)) hide)
      )
      (property "Datasheet" "~" (id 3) (at 0 0 0)
        (effects (font (size 1.27 1.27)) hide)
      )
      (property "ki_keywords" "power-flag" (id 4) (at 0 0 0)
        (effects (font (size 1.27 1.27)) hide)
      )
      (property "ki_description" "Special symbol for telling ERC where power comes from" (id 5) (at 0 0 0)
        (effects (font (size 1.27 1.27)) hide)
      )
      (symbol "PWR_FLAG_0_0"
        (pin power_out line (at 0 0 90) (length 0)
          (name "pwr" (effects (font (size 1.27 1.27))))
          (number "1" (effects (font (size 1.27 1.27))))
        )
      )
      (symbol "PWR_FLAG_0_1"
        (polyline
          (pts
            (xy 0 0)
            (xy 0 1.27)
            (xy -1.016 1.905)
            (xy 0 2.54)
            (xy 1.016 1.905)
            (xy 0 1.27)
          )
          (stroke (width 0)) (fill (type none))
        )
      )
    )
  )

  (junction (at 29.591 40.005) (diameter 1.016) (color 0 0 0 0))
  (junction (at 40.259 73.406) (diameter 1.016) (color 0 0 0 0))
  (junction (at 40.513 106.426) (diameter 1.016) (color 0 0 0 0))
  (junction (at 56.515 78.486) (diameter 1.016) (color 0 0 0 0))
  (junction (at 56.642 73.406) (diameter 1.016) (color 0 0 0 0))
  (junction (at 63.246 40.132) (diameter 1.016) (color 0 0 0 0))
  (junction (at 150.495 36.449) (diameter 1.016) (color 0 0 0 0))
  (junction (at 153.035 36.449) (diameter 1.016) (color 0 0 0 0))
  (junction (at 153.035 158.75) (diameter 1.016) (color 0 0 0 0))
  (junction (at 154.305 158.75) (diameter 1.016) (color 0 0 0 0))
  (junction (at 155.575 36.449) (diameter 1.016) (color 0 0 0 0))
  (junction (at 155.575 158.75) (diameter 1.016) (color 0 0 0 0))
  (junction (at 158.115 36.449) (diameter 1.016) (color 0 0 0 0))
  (junction (at 160.655 36.449) (diameter 1.016) (color 0 0 0 0))
  (junction (at 160.655 59.055) (diameter 1.016) (color 0 0 0 0))
  (junction (at 171.958 36.449) (diameter 1.016) (color 0 0 0 0))
  (junction (at 181.483 36.449) (diameter 1.016) (color 0 0 0 0))
  (junction (at 181.483 47.879) (diameter 1.016) (color 0 0 0 0))
  (junction (at 191.008 36.449) (diameter 1.016) (color 0 0 0 0))
  (junction (at 191.008 47.879) (diameter 1.016) (color 0 0 0 0))
  (junction (at 199.898 36.449) (diameter 1.016) (color 0 0 0 0))
  (junction (at 199.898 47.879) (diameter 1.016) (color 0 0 0 0))

  (no_connect (at 63.246 27.178))

  (wire (pts (xy 20.447 24.511) (xy 20.447 30.988))
    (stroke (width 0) (type solid) (color 0 0 0 0))
  )
  (wire (pts (xy 20.447 24.511) (xy 27.051 24.511))
    (stroke (width 0) (type solid) (color 0 0 0 0))
  )
  (wire (pts (xy 20.447 36.068) (xy 20.447 40.005))
    (stroke (width 0) (type solid) (color 0 0 0 0))
  )
  (wire (pts (xy 20.447 40.005) (xy 29.591 40.005))
    (stroke (width 0) (type solid) (color 0 0 0 0))
  )
  (wire (pts (xy 29.591 40.005) (xy 38.481 40.005))
    (stroke (width 0) (type solid) (color 0 0 0 0))
  )
  (wire (pts (xy 29.591 41.275) (xy 29.591 40.005))
    (stroke (width 0) (type solid) (color 0 0 0 0))
  )
  (wire (pts (xy 32.131 24.511) (xy 38.481 24.511))
    (stroke (width 0) (type solid) (color 0 0 0 0))
  )
  (wire (pts (xy 38.1 73.406) (xy 40.259 73.406))
    (stroke (width 0) (type solid) (color 0 0 0 0))
  )
  (wire (pts (xy 38.354 106.426) (xy 40.513 106.426))
    (stroke (width 0) (type solid) (color 0 0 0 0))
  )
  (wire (pts (xy 38.481 24.511) (xy 38.481 31.115))
    (stroke (width 0) (type solid) (color 0 0 0 0))
  )
  (wire (pts (xy 38.481 40.005) (xy 38.481 36.195))
    (stroke (width 0) (type solid) (color 0 0 0 0))
  )
  (wire (pts (xy 40.259 64.77) (xy 40.259 65.786))
    (stroke (width 0) (type solid) (color 0 0 0 0))
  )
  (wire (pts (xy 40.259 70.866) (xy 40.259 73.406))
    (stroke (width 0) (type solid) (color 0 0 0 0))
  )
  (wire (pts (xy 40.259 73.406) (xy 56.642 73.406))
    (stroke (width 0) (type solid) (color 0 0 0 0))
  )
  (wire (pts (xy 40.259 75.565) (xy 40.259 73.406))
    (stroke (width 0) (type solid) (color 0 0 0 0))
  )
  (wire (pts (xy 40.259 80.645) (xy 40.259 81.28))
    (stroke (width 0) (type solid) (color 0 0 0 0))
  )
  (wire (pts (xy 40.513 97.917) (xy 40.513 98.806))
    (stroke (width 0) (type solid) (color 0 0 0 0))
  )
  (wire (pts (xy 40.513 103.886) (xy 40.513 106.426))
    (stroke (width 0) (type solid) (color 0 0 0 0))
  )
  (wire (pts (xy 40.513 108.458) (xy 40.513 106.426))
    (stroke (width 0) (type solid) (color 0 0 0 0))
  )
  (wire (pts (xy 40.513 113.538) (xy 40.513 114.173))
    (stroke (width 0) (type solid) (color 0 0 0 0))
  )
  (wire (pts (xy 53.34 24.638) (xy 53.34 31.242))
    (stroke (width 0) (type solid) (color 0 0 0 0))
  )
  (wire (pts (xy 53.34 36.322) (xy 53.34 40.132))
    (stroke (width 0) (type solid) (color 0 0 0 0))
  )
  (wire (pts (xy 54.737 71.12) (xy 56.642 71.12))
    (stroke (width 0) (type solid) (color 0 0 0 0))
  )
  (wire (pts (xy 56.515 78.486) (xy 54.229 78.486))
    (stroke (width 0) (type solid) (color 0 0 0 0))
  )
  (wire (pts (xy 56.515 78.486) (xy 56.515 80.137))
    (stroke (width 0) (type solid) (color 0 0 0 0))
  )
  (wire (pts (xy 56.642 71.12) (xy 56.642 73.406))
    (stroke (width 0) (type solid) (color 0 0 0 0))
  )
  (wire (pts (xy 56.642 73.406) (xy 81.915 73.406))
    (stroke (width 0) (type solid) (color 0 0 0 0))
  )
  (wire (pts (xy 60.706 24.638) (xy 53.34 24.638))
    (stroke (width 0) (type solid) (color 0 0 0 0))
  )
  (wire (pts (xy 63.246 40.132) (xy 53.34 40.132))
    (stroke (width 0) (type solid) (color 0 0 0 0))
  )
  (wire (pts (xy 63.246 41.402) (xy 63.246 40.132))
    (stroke (width 0) (type solid) (color 0 0 0 0))
  )
  (wire (pts (xy 71.247 101.346) (xy 81.915 101.346))
    (stroke (width 0) (type solid) (color 0 0 0 0))
  )
  (wire (pts (xy 71.247 103.886) (xy 81.915 103.886))
    (stroke (width 0) (type solid) (color 0 0 0 0))
  )
  (wire (pts (xy 71.247 108.966) (xy 81.915 108.966))
    (stroke (width 0) (type solid) (color 0 0 0 0))
  )
  (wire (pts (xy 71.247 111.506) (xy 81.915 111.506))
    (stroke (width 0) (type solid) (color 0 0 0 0))
  )
  (wire (pts (xy 71.247 119.126) (xy 81.915 119.126))
    (stroke (width 0) (type solid) (color 0 0 0 0))
  )
  (wire (pts (xy 71.247 126.746) (xy 81.915 126.746))
    (stroke (width 0) (type solid) (color 0 0 0 0))
  )
  (wire (pts (xy 71.247 129.286) (xy 81.915 129.286))
    (stroke (width 0) (type solid) (color 0 0 0 0))
  )
  (wire (pts (xy 71.247 131.826) (xy 81.915 131.826))
    (stroke (width 0) (type solid) (color 0 0 0 0))
  )
  (wire (pts (xy 71.247 134.366) (xy 81.915 134.366))
    (stroke (width 0) (type solid) (color 0 0 0 0))
  )
  (wire (pts (xy 71.247 136.906) (xy 81.915 136.906))
    (stroke (width 0) (type solid) (color 0 0 0 0))
  )
  (wire (pts (xy 72.517 24.638) (xy 65.786 24.638))
    (stroke (width 0) (type solid) (color 0 0 0 0))
  )
  (wire (pts (xy 72.517 31.242) (xy 72.517 24.638))
    (stroke (width 0) (type solid) (color 0 0 0 0))
  )
  (wire (pts (xy 72.517 36.322) (xy 72.517 40.132))
    (stroke (width 0) (type solid) (color 0 0 0 0))
  )
  (wire (pts (xy 72.517 40.132) (xy 63.246 40.132))
    (stroke (width 0) (type solid) (color 0 0 0 0))
  )
  (wire (pts (xy 78.613 83.566) (xy 81.915 83.566))
    (stroke (width 0) (type solid) (color 0 0 0 0))
  )
  (wire (pts (xy 78.613 86.106) (xy 81.915 86.106))
    (stroke (width 0) (type solid) (color 0 0 0 0))
  )
  (wire (pts (xy 81.915 78.486) (xy 56.515 78.486))
    (stroke (width 0) (type solid) (color 0 0 0 0))
  )
  (wire (pts (xy 81.915 91.186) (xy 71.374 91.186))
    (stroke (width 0) (type solid) (color 0 0 0 0))
  )
  (wire (pts (xy 81.915 93.726) (xy 78.613 93.726))
    (stroke (width 0) (type solid) (color 0 0 0 0))
  )
  (wire (pts (xy 81.915 96.266) (xy 78.613 96.266))
    (stroke (width 0) (type solid) (color 0 0 0 0))
  )
  (wire (pts (xy 81.915 106.426) (xy 40.513 106.426))
    (stroke (width 0) (type solid) (color 0 0 0 0))
  )
  (wire (pts (xy 81.915 114.046) (xy 71.247 114.046))
    (stroke (width 0) (type solid) (color 0 0 0 0))
  )
  (wire (pts (xy 81.915 116.586) (xy 71.247 116.586))
    (stroke (width 0) (type solid) (color 0 0 0 0))
  )
  (wire (pts (xy 81.915 121.666) (xy 71.247 121.666))
    (stroke (width 0) (type solid) (color 0 0 0 0))
  )
  (wire (pts (xy 81.915 124.206) (xy 71.247 124.206))
    (stroke (width 0) (type solid) (color 0 0 0 0))
  )
  (wire (pts (xy 81.915 139.446) (xy 71.247 139.446))
    (stroke (width 0) (type solid) (color 0 0 0 0))
  )
  (wire (pts (xy 150.495 33.274) (xy 150.495 36.449))
    (stroke (width 0) (type solid) (color 0 0 0 0))
  )
  (wire (pts (xy 150.495 36.449) (xy 150.495 63.246))
    (stroke (width 0) (type solid) (color 0 0 0 0))
  )
  (wire (pts (xy 150.495 36.449) (xy 153.035 36.449))
    (stroke (width 0) (type solid) (color 0 0 0 0))
  )
  (wire (pts (xy 150.495 149.606) (xy 150.495 158.75))
    (stroke (width 0) (type solid) (color 0 0 0 0))
  )
  (wire (pts (xy 150.495 158.75) (xy 153.035 158.75))
    (stroke (width 0) (type solid) (color 0 0 0 0))
  )
  (wire (pts (xy 153.035 36.449) (xy 155.575 36.449))
    (stroke (width 0) (type solid) (color 0 0 0 0))
  )
  (wire (pts (xy 153.035 63.246) (xy 153.035 36.449))
    (stroke (width 0) (type solid) (color 0 0 0 0))
  )
  (wire (pts (xy 153.035 149.606) (xy 153.035 158.75))
    (stroke (width 0) (type solid) (color 0 0 0 0))
  )
  (wire (pts (xy 153.035 158.75) (xy 154.305 158.75))
    (stroke (width 0) (type solid) (color 0 0 0 0))
  )
  (wire (pts (xy 154.305 158.75) (xy 155.575 158.75))
    (stroke (width 0) (type solid) (color 0 0 0 0))
  )
  (wire (pts (xy 154.305 164.211) (xy 154.305 158.75))
    (stroke (width 0) (type solid) (color 0 0 0 0))
  )
  (wire (pts (xy 155.575 36.449) (xy 155.575 63.246))
    (stroke (width 0) (type solid) (color 0 0 0 0))
  )
  (wire (pts (xy 155.575 36.449) (xy 158.115 36.449))
    (stroke (width 0) (type solid) (color 0 0 0 0))
  )
  (wire (pts (xy 155.575 149.606) (xy 155.575 158.75))
    (stroke (width 0) (type solid) (color 0 0 0 0))
  )
  (wire (pts (xy 155.575 158.75) (xy 158.115 158.75))
    (stroke (width 0) (type solid) (color 0 0 0 0))
  )
  (wire (pts (xy 158.115 36.449) (xy 158.115 63.246))
    (stroke (width 0) (type solid) (color 0 0 0 0))
  )
  (wire (pts (xy 158.115 36.449) (xy 160.655 36.449))
    (stroke (width 0) (type solid) (color 0 0 0 0))
  )
  (wire (pts (xy 158.115 158.75) (xy 158.115 149.606))
    (stroke (width 0) (type solid) (color 0 0 0 0))
  )
  (wire (pts (xy 160.655 36.449) (xy 171.958 36.449))
    (stroke (width 0) (type solid) (color 0 0 0 0))
  )
  (wire (pts (xy 160.655 46.736) (xy 160.655 36.449))
    (stroke (width 0) (type solid) (color 0 0 0 0))
  )
  (wire (pts (xy 160.655 59.055) (xy 160.655 51.816))
    (stroke (width 0) (type solid) (color 0 0 0 0))
  )
  (wire (pts (xy 160.655 59.055) (xy 160.655 63.246))
    (stroke (width 0) (type solid) (color 0 0 0 0))
  )
  (wire (pts (xy 163.068 59.055) (xy 160.655 59.055))
    (stroke (width 0) (type solid) (color 0 0 0 0))
  )
  (wire (pts (xy 171.958 36.449) (xy 181.483 36.449))
    (stroke (width 0) (type solid) (color 0 0 0 0))
  )
  (wire (pts (xy 171.958 40.894) (xy 171.958 36.449))
    (stroke (width 0) (type solid) (color 0 0 0 0))
  )
  (wire (pts (xy 171.958 45.974) (xy 171.958 47.879))
    (stroke (width 0) (type solid) (color 0 0 0 0))
  )
  (wire (pts (xy 171.958 47.879) (xy 181.483 47.879))
    (stroke (width 0) (type solid) (color 0 0 0 0))
  )
  (wire (pts (xy 181.483 36.449) (xy 191.008 36.449))
    (stroke (width 0) (type solid) (color 0 0 0 0))
  )
  (wire (pts (xy 181.483 40.894) (xy 181.483 36.449))
    (stroke (width 0) (type solid) (color 0 0 0 0))
  )
  (wire (pts (xy 181.483 45.974) (xy 181.483 47.879))
    (stroke (width 0) (type solid) (color 0 0 0 0))
  )
  (wire (pts (xy 181.483 47.879) (xy 191.008 47.879))
    (stroke (width 0) (type solid) (color 0 0 0 0))
  )
  (wire (pts (xy 191.008 36.449) (xy 199.898 36.449))
    (stroke (width 0) (type solid) (color 0 0 0 0))
  )
  (wire (pts (xy 191.008 40.894) (xy 191.008 36.449))
    (stroke (width 0) (type solid) (color 0 0 0 0))
  )
  (wire (pts (xy 191.008 45.974) (xy 191.008 47.879))
    (stroke (width 0) (type solid) (color 0 0 0 0))
  )
  (wire (pts (xy 191.008 47.879) (xy 199.898 47.879))
    (stroke (width 0) (type solid) (color 0 0 0 0))
  )
  (wire (pts (xy 191.008 49.784) (xy 191.008 47.879))
    (stroke (width 0) (type solid) (color 0 0 0 0))
  )
  (wire (pts (xy 199.898 36.449) (xy 209.423 36.449))
    (stroke (width 0) (type solid) (color 0 0 0 0))
  )
  (wire (pts (xy 199.898 40.894) (xy 199.898 36.449))
    (stroke (width 0) (type solid) (color 0 0 0 0))
  )
  (wire (pts (xy 199.898 45.974) (xy 199.898 47.879))
    (stroke (width 0) (type solid) (color 0 0 0 0))
  )
  (wire (pts (xy 199.898 47.879) (xy 209.423 47.879))
    (stroke (width 0) (type solid) (color 0 0 0 0))
  )
  (wire (pts (xy 209.423 36.449) (xy 209.423 40.894))
    (stroke (width 0) (type solid) (color 0 0 0 0))
  )
  (wire (pts (xy 209.423 47.879) (xy 209.423 45.974))
    (stroke (width 0) (type solid) (color 0 0 0 0))
  )
  (wire (pts (xy 229.235 101.346) (xy 236.093 101.346))
    (stroke (width 0) (type solid) (color 0 0 0 0))
  )
  (wire (pts (xy 229.235 103.886) (xy 236.093 103.886))
    (stroke (width 0) (type solid) (color 0 0 0 0))
  )
  (wire (pts (xy 229.235 108.966) (xy 236.093 108.966))
    (stroke (width 0) (type solid) (color 0 0 0 0))
  )
  (wire (pts (xy 229.235 114.046) (xy 236.093 114.046))
    (stroke (width 0) (type solid) (color 0 0 0 0))
  )
  (wire (pts (xy 229.235 116.586) (xy 236.093 116.586))
    (stroke (width 0) (type solid) (color 0 0 0 0))
  )
  (wire (pts (xy 229.235 119.126) (xy 236.093 119.126))
    (stroke (width 0) (type solid) (color 0 0 0 0))
  )
  (wire (pts (xy 229.235 121.666) (xy 255.524 121.666))
    (stroke (width 0) (type solid) (color 0 0 0 0))
  )
  (wire (pts (xy 229.235 124.206) (xy 236.093 124.206))
    (stroke (width 0) (type solid) (color 0 0 0 0))
  )
  (wire (pts (xy 229.235 126.746) (xy 236.093 126.746))
    (stroke (width 0) (type solid) (color 0 0 0 0))
  )
  (wire (pts (xy 229.235 129.286) (xy 236.093 129.286))
    (stroke (width 0) (type solid) (color 0 0 0 0))
  )
  (wire (pts (xy 229.235 131.826) (xy 236.093 131.826))
    (stroke (width 0) (type solid) (color 0 0 0 0))
  )
  (wire (pts (xy 229.235 134.366) (xy 236.093 134.366))
    (stroke (width 0) (type solid) (color 0 0 0 0))
  )
  (wire (pts (xy 229.235 139.446) (xy 236.093 139.446))
    (stroke (width 0) (type solid) (color 0 0 0 0))
  )
  (wire (pts (xy 236.093 106.426) (xy 229.235 106.426))
    (stroke (width 0) (type solid) (color 0 0 0 0))
  )
  (wire (pts (xy 236.093 136.906) (xy 229.235 136.906))
    (stroke (width 0) (type solid) (color 0 0 0 0))
  )
  (wire (pts (xy 236.22 111.506) (xy 229.235 111.506))
    (stroke (width 0) (type solid) (color 0 0 0 0))
  )
  (wire (pts (xy 260.604 121.666) (xy 263.017 121.666))
    (stroke (width 0) (type solid) (color 0 0 0 0))
  )
  (wire (pts (xy 268.097 121.666) (xy 269.367 121.666))
    (stroke (width 0) (type solid) (color 0 0 0 0))
  )
  (polyline (pts (xy 12.065 47.498) (xy 80.01 47.498))
    (stroke (width 0.508) (type solid) (color 0 0 0 0))
  )
  (polyline (pts (xy 80.01 47.498) (xy 80.01 12.065))
    (stroke (width 0.508) (type solid) (color 0 0 0 0))
  )

  (text "OSC" (at 49.53 17.018 180)
    (effects (font (size 2.0066 2.0066) (thickness 0.4013) bold italic) (justify right bottom))
  )
  (text "MCU" (at 157.861 19.177 180)
    (effects (font (size 2.9972 2.9972) (thickness 0.5994) bold italic) (justify right bottom))
  )

  (label "OSC32_IN" (at 20.447 24.511 90)
    (effects (font (size 1.27 1.27)) (justify left bottom))
  )
  (label "OSC32_OUT" (at 38.481 24.511 90)
    (effects (font (size 1.27 1.27)) (justify left bottom))
  )
  (label "OSC_IN" (at 53.34 24.638 90)
    (effects (font (size 1.27 1.27)) (justify left bottom))
  )
  (label "OSC_OUT" (at 72.517 24.638 90)
    (effects (font (size 1.27 1.27)) (justify left bottom))
  )
  (label "OSC_IN" (at 78.613 83.566 180)
    (effects (font (size 1.27 1.27)) (justify right bottom))
  )
  (label "OSC_OUT" (at 78.613 86.106 180)
    (effects (font (size 1.27 1.27)) (justify right bottom))
  )
  (label "OSC32_IN" (at 78.613 93.726 180)
    (effects (font (size 1.27 1.27)) (justify right bottom))
  )
  (label "OSC32_OUT" (at 78.613 96.266 180)
    (effects (font (size 1.27 1.27)) (justify right bottom))
  )

  (hierarchical_label "BOOT" (shape input) (at 54.229 78.486 180)
    (effects (font (size 1.27 1.27)) (justify right))
  )
  (hierarchical_label "NRST" (shape input) (at 54.737 71.12 180)
    (effects (font (size 1.27 1.27)) (justify right))
  )
  (hierarchical_label "PB0_TIM3_CH3" (shape output) (at 71.247 101.346 180)
    (effects (font (size 1.27 1.27)) (justify right))
  )
  (hierarchical_label "PB1_TIM3_CH4" (shape output) (at 71.247 103.886 180)
    (effects (font (size 1.27 1.27)) (justify right))
  )
  (hierarchical_label "PB3_SPI1_CS2" (shape output) (at 71.247 108.966 180)
    (effects (font (size 1.27 1.27)) (justify right))
  )
  (hierarchical_label "PB4_TIM3_CH1" (shape output) (at 71.247 111.506 180)
    (effects (font (size 1.27 1.27)) (justify right))
  )
  (hierarchical_label "PB5_TIM3_CH2" (shape output) (at 71.247 114.046 180)
    (effects (font (size 1.27 1.27)) (justify right))
  )
  (hierarchical_label "PB6_I2C1_SCL" (shape output) (at 71.247 116.586 180)
    (effects (font (size 1.27 1.27)) (justify right))
  )
  (hierarchical_label "PB7_I2C1_SDA" (shape bidirectional) (at 71.247 119.126 180)
    (effects (font (size 1.27 1.27)) (justify right))
  )
  (hierarchical_label "PB8_TIM16_CH1" (shape output) (at 71.247 121.666 180)
    (effects (font (size 1.27 1.27)) (justify right))
  )
  (hierarchical_label "PB9_TIM17_CH1" (shape output) (at 71.247 124.206 180)
    (effects (font (size 1.27 1.27)) (justify right))
  )
  (hierarchical_label "PB10_IO2" (shape bidirectional) (at 71.247 126.746 180)
    (effects (font (size 1.27 1.27)) (justify right))
  )
  (hierarchical_label "PB11_IO3" (shape bidirectional) (at 71.247 129.286 180)
    (effects (font (size 1.27 1.27)) (justify right))
  )
  (hierarchical_label "PB12_SPI2_CS" (shape output) (at 71.247 131.826 180)
    (effects (font (size 1.27 1.27)) (justify right))
  )
  (hierarchical_label "PB13_SPI2_SCK" (shape output) (at 71.247 134.366 180)
    (effects (font (size 1.27 1.27)) (justify right))
  )
  (hierarchical_label "PB14_SPI2_MISO" (shape input) (at 71.247 136.906 180)
    (effects (font (size 1.27 1.27)) (justify right))
  )
  (hierarchical_label "PB15_SPI2_MOSI" (shape output) (at 71.247 139.446 180)
    (effects (font (size 1.27 1.27)) (justify right))
  )
  (hierarchical_label "PC13_SPI1_CS0" (shape output) (at 71.374 91.186 180)
    (effects (font (size 1.27 1.27)) (justify right))
  )
  (hierarchical_label "PA0_WKUP" (shape input) (at 236.093 101.346 0)
    (effects (font (size 1.27 1.27)) (justify left))
  )
  (hierarchical_label "PA1_ADC_IN1" (shape input) (at 236.093 103.886 0)
    (effects (font (size 1.27 1.27)) (justify left))
  )
  (hierarchical_label "PA2_ADC_IN2" (shape input) (at 236.093 106.426 0)
    (effects (font (size 1.27 1.27)) (justify left))
  )
  (hierarchical_label "PA3_IO0" (shape bidirectional) (at 236.093 108.966 0)
    (effects (font (size 1.27 1.27)) (justify left))
  )
  (hierarchical_label "PA5_SPI1_SCK" (shape output) (at 236.093 114.046 0)
    (effects (font (size 1.27 1.27)) (justify left))
  )
  (hierarchical_label "PA6_SPI1_MISO" (shape input) (at 236.093 116.586 0)
    (effects (font (size 1.27 1.27)) (justify left))
  )
  (hierarchical_label "PA7_SPI1_MOSI" (shape output) (at 236.093 119.126 0)
    (effects (font (size 1.27 1.27)) (justify left))
  )
  (hierarchical_label "PA9_UART1_TX" (shape output) (at 236.093 124.206 0)
    (effects (font (size 1.27 1.27)) (justify left))
  )
  (hierarchical_label "PA10_UART1_RX" (shape input) (at 236.093 126.746 0)
    (effects (font (size 1.27 1.27)) (justify left))
  )
  (hierarchical_label "PA11_I2C2_SCL" (shape output) (at 236.093 129.286 0)
    (effects (font (size 1.27 1.27)) (justify left))
  )
  (hierarchical_label "PA12_I2C2_SDA" (shape bidirectional) (at 236.093 131.826 0)
    (effects (font (size 1.27 1.27)) (justify left))
  )
  (hierarchical_label "PA13_SYS_SWDIO" (shape bidirectional) (at 236.093 134.366 0)
    (effects (font (size 1.27 1.27)) (justify left))
  )
  (hierarchical_label "PA14_SYS_SWCLK" (shape input) (at 236.093 136.906 0)
    (effects (font (size 1.27 1.27)) (justify left))
  )
  (hierarchical_label "PA15_SPI1_CS1" (shape output) (at 236.093 139.446 0)
    (effects (font (size 1.27 1.27)) (justify left))
  )
  (hierarchical_label "PA4_IO1" (shape bidirectional) (at 236.22 111.506 0)
    (effects (font (size 1.27 1.27)) (justify left))
  )

  (symbol (lib_id "power:PWR_FLAG") (at 163.068 59.055 270) (unit 1)
    (in_bom yes) (on_board yes)
    (uuid "00000000-0000-0000-0000-00005f000628")
    (property "Reference" "#FLG01" (id 0) (at 164.973 59.055 0)
      (effects (font (size 1.4986 1.4986) bold italic) hide)
    )
    (property "Value" "PWR_FLAG" (id 1) (at 169.799 59.182 90)
      (effects (font (size 0.9906 0.9906) bold italic))
    )
    (property "Footprint" "" (id 2) (at 163.068 59.055 0)
      (effects (font (size 0.9906 0.9906) bold italic) hide)
    )
    (property "Datasheet" "~" (id 3) (at 163.068 59.055 0)
      (effects (font (size 0.9906 0.9906) bold italic) hide)
    )
  )

  (symbol (lib_id "power:+3.3V") (at 40.259 64.77 0) (unit 1)
    (in_bom yes) (on_board yes)
    (uuid "00000000-0000-0000-0000-00005cc80d26")
    (property "Reference" "#PWR06" (id 0) (at 40.259 68.58 0)
      (effects (font (size 1.4986 1.4986) bold italic) hide)
    )
    (property "Value" "+3.3V" (id 1) (at 40.64 60.3758 0)
      (effects (font (size 0.9906 0.9906) bold italic))
    )
    (property "Footprint" "" (id 2) (at 40.259 64.77 0)
      (effects (font (size 0.9906 0.9906) bold italic) hide)
    )
    (property "Datasheet" "" (id 3) (at 40.259 64.77 0)
      (effects (font (size 0.9906 0.9906) bold italic) hide)
    )
  )

  (symbol (lib_id "power:+3.3V") (at 40.513 97.917 0) (unit 1)
    (in_bom yes) (on_board yes)
    (uuid "00000000-0000-0000-0000-00005ef1cf27")
    (property "Reference" "#PWR08" (id 0) (at 40.513 101.727 0)
      (effects (font (size 1.4986 1.4986) bold italic) hide)
    )
    (property "Value" "+3.3V" (id 1) (at 40.894 93.5228 0)
      (effects (font (size 0.9906 0.9906) bold italic))
    )
    (property "Footprint" "" (id 2) (at 40.513 97.917 0)
      (effects (font (size 0.9906 0.9906) bold italic) hide)
    )
    (property "Datasheet" "" (id 3) (at 40.513 97.917 0)
      (effects (font (size 0.9906 0.9906) bold italic) hide)
    )
  )

  (symbol (lib_id "power:+3.3V") (at 150.495 33.274 0) (unit 1)
    (in_bom yes) (on_board yes)
    (uuid "00000000-0000-0000-0000-00005c912aea")
    (property "Reference" "#PWR015" (id 0) (at 150.495 37.084 0)
      (effects (font (size 1.4986 1.4986) bold italic) hide)
    )
    (property "Value" "+3.3V" (id 1) (at 150.876 28.8798 0)
      (effects (font (size 0.9906 0.9906) bold italic))
    )
    (property "Footprint" "" (id 2) (at 150.495 33.274 0)
      (effects (font (size 0.9906 0.9906) bold italic) hide)
    )
    (property "Datasheet" "" (id 3) (at 150.495 33.274 0)
      (effects (font (size 0.9906 0.9906) bold italic) hide)
    )
  )

  (symbol (lib_id "power:GND") (at 25.4 73.406 270) (mirror x) (unit 1)
    (in_bom yes) (on_board yes)
    (uuid "00000000-0000-0000-0000-00005ef19a6d")
    (property "Reference" "#PWR03" (id 0) (at 19.05 73.406 0)
      (effects (font (size 1.4986 1.4986) bold italic) hide)
    )
    (property "Value" "GND" (id 1) (at 21.082 73.406 90)
      (effects (font (size 0.9906 0.9906) bold italic))
    )
    (property "Footprint" "" (id 2) (at 25.4 73.406 0)
      (effects (font (size 0.9906 0.9906) bold italic) hide)
    )
    (property "Datasheet" "" (id 3) (at 25.4 73.406 0)
      (effects (font (size 0.9906 0.9906) bold italic) hide)
    )
  )

  (symbol (lib_id "power:GND") (at 25.654 106.426 270) (mirror x) (unit 1)
    (in_bom yes) (on_board yes)
    (uuid "00000000-0000-0000-0000-00005ef1cef7")
    (property "Reference" "#PWR04" (id 0) (at 19.304 106.426 0)
      (effects (font (size 1.4986 1.4986) bold italic) hide)
    )
    (property "Value" "GND" (id 1) (at 21.209 106.553 90)
      (effects (font (size 0.9906 0.9906) bold italic))
    )
    (property "Footprint" "" (id 2) (at 25.654 106.426 0)
      (effects (font (size 0.9906 0.9906) bold italic) hide)
    )
    (property "Datasheet" "" (id 3) (at 25.654 106.426 0)
      (effects (font (size 0.9906 0.9906) bold italic) hide)
    )
  )

  (symbol (lib_id "power:GND") (at 29.591 41.275 0) (mirror y) (unit 1)
    (in_bom yes) (on_board yes)
    (uuid "00000000-0000-0000-0000-00005c6b7857")
    (property "Reference" "#PWR05" (id 0) (at 29.591 47.625 0)
      (effects (font (size 1.4986 1.4986) bold italic) hide)
    )
    (property "Value" "GND" (id 1) (at 29.464 45.6692 0)
      (effects (font (size 0.9906 0.9906) bold italic))
    )
    (property "Footprint" "" (id 2) (at 29.591 41.275 0)
      (effects (font (size 0.9906 0.9906) bold italic) hide)
    )
    (property "Datasheet" "" (id 3) (at 29.591 41.275 0)
      (effects (font (size 0.9906 0.9906) bold italic) hide)
    )
  )

  (symbol (lib_id "power:GND") (at 40.259 81.28 0) (unit 1)
    (in_bom yes) (on_board yes)
    (uuid "00000000-0000-0000-0000-00005ef4de03")
    (property "Reference" "#PWR07" (id 0) (at 40.259 87.63 0)
      (effects (font (size 1.4986 1.4986) bold italic) hide)
    )
    (property "Value" "GND" (id 1) (at 40.259 85.09 0)
      (effects (font (size 0.9906 0.9906) bold italic))
    )
    (property "Footprint" "" (id 2) (at 40.259 81.28 0)
      (effects (font (size 0.9906 0.9906) bold italic) hide)
    )
    (property "Datasheet" "" (id 3) (at 40.259 81.28 0)
      (effects (font (size 0.9906 0.9906) bold italic) hide)
    )
  )

  (symbol (lib_id "power:GND") (at 40.513 114.173 0) (unit 1)
    (in_bom yes) (on_board yes)
    (uuid "00000000-0000-0000-0000-00005ef51b8c")
    (property "Reference" "#PWR09" (id 0) (at 40.513 120.523 0)
      (effects (font (size 1.4986 1.4986) bold italic) hide)
    )
    (property "Value" "GND" (id 1) (at 40.513 117.983 0)
      (effects (font (size 0.9906 0.9906) bold italic))
    )
    (property "Footprint" "" (id 2) (at 40.513 114.173 0)
      (effects (font (size 0.9906 0.9906) bold italic) hide)
    )
    (property "Datasheet" "" (id 3) (at 40.513 114.173 0)
      (effects (font (size 0.9906 0.9906) bold italic) hide)
    )
  )

  (symbol (lib_id "power:GND") (at 56.515 85.217 0) (unit 1)
    (in_bom yes) (on_board yes)
    (uuid "00000000-0000-0000-0000-00005ebad49d")
    (property "Reference" "#PWR010" (id 0) (at 56.515 91.567 0)
      (effects (font (size 1.4986 1.4986) bold italic) hide)
    )
    (property "Value" "GND" (id 1) (at 56.515 89.027 0)
      (effects (font (size 0.9906 0.9906) bold italic))
    )
    (property "Footprint" "" (id 2) (at 56.515 85.217 0)
      (effects (font (size 0.9906 0.9906) bold italic) hide)
    )
    (property "Datasheet" "" (id 3) (at 56.515 85.217 0)
      (effects (font (size 0.9906 0.9906) bold italic) hide)
    )
  )

  (symbol (lib_id "power:GND") (at 63.246 41.402 0) (mirror y) (unit 1)
    (in_bom yes) (on_board yes)
    (uuid "00000000-0000-0000-0000-00005c6420e0")
    (property "Reference" "#PWR011" (id 0) (at 63.246 47.752 0)
      (effects (font (size 1.4986 1.4986) bold italic) hide)
    )
    (property "Value" "GND" (id 1) (at 63.119 45.7962 0)
      (effects (font (size 0.9906 0.9906) bold italic))
    )
    (property "Footprint" "" (id 2) (at 63.246 41.402 0)
      (effects (font (size 0.9906 0.9906) bold italic) hide)
    )
    (property "Datasheet" "" (id 3) (at 63.246 41.402 0)
      (effects (font (size 0.9906 0.9906) bold italic) hide)
    )
  )

  (symbol (lib_id "power:GND") (at 154.305 164.211 0) (unit 1)
    (in_bom yes) (on_board yes)
    (uuid "00000000-0000-0000-0000-00005c90dea4")
    (property "Reference" "#PWR016" (id 0) (at 154.305 170.561 0)
      (effects (font (size 1.4986 1.4986) bold italic) hide)
    )
    (property "Value" "GND" (id 1) (at 154.432 168.6052 0)
      (effects (font (size 0.9906 0.9906) bold italic))
    )
    (property "Footprint" "" (id 2) (at 154.305 164.211 0)
      (effects (font (size 0.9906 0.9906) bold italic) hide)
    )
    (property "Datasheet" "" (id 3) (at 154.305 164.211 0)
      (effects (font (size 0.9906 0.9906) bold italic) hide)
    )
  )

  (symbol (lib_id "power:GND") (at 191.008 49.784 0) (unit 1)
    (in_bom yes) (on_board yes)
    (uuid "00000000-0000-0000-0000-00005c90ce2f")
    (property "Reference" "#PWR017" (id 0) (at 191.008 56.134 0)
      (effects (font (size 1.4986 1.4986) bold italic) hide)
    )
    (property "Value" "GND" (id 1) (at 191.135 54.1782 0)
      (effects (font (size 0.9906 0.9906) bold italic))
    )
    (property "Footprint" "" (id 2) (at 191.008 49.784 0)
      (effects (font (size 0.9906 0.9906) bold italic) hide)
    )
    (property "Datasheet" "" (id 3) (at 191.008 49.784 0)
      (effects (font (size 0.9906 0.9906) bold italic) hide)
    )
  )

  (symbol (lib_id "power:GND") (at 269.367 121.666 90) (mirror x) (unit 1)
    (in_bom yes) (on_board yes)
    (uuid "00000000-0000-0000-0000-00005f08ef00")
    (property "Reference" "#PWR018" (id 0) (at 275.717 121.666 0)
      (effects (font (size 1.4986 1.4986) bold italic) hide)
    )
    (property "Value" "GND" (id 1) (at 273.939 121.539 90)
      (effects (font (size 0.9906 0.9906) bold italic))
    )
    (property "Footprint" "" (id 2) (at 269.367 121.666 0)
      (effects (font (size 0.9906 0.9906) bold italic) hide)
    )
    (property "Datasheet" "" (id 3) (at 269.367 121.666 0)
      (effects (font (size 0.9906 0.9906) bold italic) hide)
    )
  )

  (symbol (lib_id "device:R_Small") (at 40.259 68.326 0) (unit 1)
    (in_bom yes) (on_board yes)
    (uuid "00000000-0000-0000-0000-00005cc80c9e")
    (property "Reference" "R1" (id 0) (at 43.307 68.326 0)
      (effects (font (size 1.4986 1.4986) bold italic))
    )
    (property "Value" "10K" (id 1) (at 40.259 68.326 90)
      (effects (font (size 0.9906 0.9906) bold italic))
    )
    (property "Footprint" "Resistor_SMD:R_0603_1608Metric" (id 2) (at 40.259 68.326 0)
      (effects (font (size 0.9906 0.9906) bold italic) hide)
    )
    (property "Datasheet" "~" (id 3) (at 40.259 68.326 0)
      (effects (font (size 0.9906 0.9906) bold italic) hide)
    )
  )

  (symbol (lib_id "device:R_Small") (at 40.513 101.346 0) (unit 1)
    (in_bom yes) (on_board yes)
    (uuid "00000000-0000-0000-0000-00005ef1cf05")
    (property "Reference" "R3" (id 0) (at 43.561 100.457 0)
      (effects (font (size 1.4986 1.4986) bold italic))
    )
    (property "Value" "10K" (id 1) (at 40.513 101.346 90)
      (effects (font (size 0.9906 0.9906) bold italic))
    )
    (property "Footprint" "Resistor_SMD:R_0603_1608Metric" (id 2) (at 40.513 101.346 0)
      (effects (font (size 0.9906 0.9906) bold italic) hide)
    )
    (property "Datasheet" "~" (id 3) (at 40.513 101.346 0)
      (effects (font (size 0.9906 0.9906) bold italic) hide)
    )
  )

  (symbol (lib_id "device:R_Small") (at 56.515 82.677 0) (unit 1)
    (in_bom yes) (on_board yes)
    (uuid "00000000-0000-0000-0000-00005eba85cc")
    (property "Reference" "R2" (id 0) (at 59.817 82.677 0)
      (effects (font (size 1.4986 1.4986) bold italic))
    )
    (property "Value" "10K" (id 1) (at 56.515 82.677 90)
      (effects (font (size 0.9906 0.9906) bold italic))
    )
    (property "Footprint" "Resistor_SMD:R_0603_1608Metric" (id 2) (at 56.515 82.677 0)
      (effects (font (size 0.9906 0.9906) bold italic) hide)
    )
    (property "Datasheet" "~" (id 3) (at 56.515 82.677 0)
      (effects (font (size 0.9906 0.9906) bold italic) hide)
    )
  )

  (symbol (lib_id "device:R_Small") (at 258.064 121.666 90) (mirror x) (unit 1)
    (in_bom yes) (on_board yes)
    (uuid "00000000-0000-0000-0000-00005f08eefe")
    (property "Reference" "R4" (id 0) (at 258.064 123.825 90)
      (effects (font (size 1.4986 1.4986) bold italic))
    )
    (property "Value" "750" (id 1) (at 258.191 121.666 90)
      (effects (font (size 0.9906 0.9906) bold italic))
    )
    (property "Footprint" "Resistor_SMD:R_0603_1608Metric" (id 2) (at 258.064 121.666 0)
      (effects (font (size 0.9906 0.9906) bold italic) hide)
    )
    (property "Datasheet" "~" (id 3) (at 258.064 121.666 0)
      (effects (font (size 0.9906 0.9906) bold italic) hide)
    )
  )

  (symbol (lib_id "device:LED_Small") (at 265.557 121.666 180) (unit 1)
    (in_bom yes) (on_board yes)
    (uuid "00000000-0000-0000-0000-00005f08eeff")
    (property "Reference" "D1" (id 0) (at 265.684 124.714 0)
      (effects (font (size 1.4986 1.4986) bold italic))
    )
    (property "Value" "GREEN 2mA" (id 1) (at 265.557 119.634 0)
      (effects (font (size 0.9906 0.9906) bold italic))
    )
    (property "Footprint" "LED_SMD:LED_0805_2012Metric" (id 2) (at 265.557 121.666 90)
      (effects (font (size 0.9906 0.9906) bold italic) hide)
    )
    (property "Datasheet" "~" (id 3) (at 265.557 121.666 90)
      (effects (font (size 0.9906 0.9906) bold italic) hide)
    )
    (property "FARNELL" "2217981" (id 4) (at 265.557 121.666 0)
      (effects (font (size 0.9906 0.9906) bold italic) hide)
    )
    (property "FAB REF" "KPT-2012ZGC" (id 5) (at 265.43 117.856 0)
      (effects (font (size 0.9906 0.9906) bold italic))
    )
    (property "LCSC" "C598372" (id 6) (at 265.557 121.666 0)
      (effects (font (size 0.9906 0.9906) bold italic) hide)
    )
  )

  (symbol (lib_id "device:Crystal_Small") (at 29.591 24.511 0) (mirror x) (unit 1)
    (in_bom yes) (on_board yes)
    (uuid "00000000-0000-0000-0000-00005c65233e")
    (property "Reference" "Y1" (id 0) (at 29.591 19.431 0)
      (effects (font (size 1.4986 1.4986) bold italic))
    )
    (property "Value" "32.786Khz" (id 1) (at 29.591 21.844 0)
      (effects (font (size 0.9906 0.9906) bold italic))
    )
    (property "Footprint" "MyFootPrint:OSCI_3_2_X1_5" (id 2) (at 29.591 24.511 0)
      (effects (font (size 0.9906 0.9906) bold italic) hide)
    )
    (property "Datasheet" "~" (id 3) (at 29.591 24.511 0)
      (effects (font (size 0.9906 0.9906) bold italic) hide)
    )
    (property "FAB REF" "ABS07-32.768KHZ-T" (id 4) (at 29.591 27.813 0)
      (effects (font (size 0.9906 0.9906) bold italic))
    )
    (property "MOUSER" "815-ABS07-32.768KHZT" (id 5) (at 29.591 24.511 0)
      (effects (font (size 0.9906 0.9906) bold italic) hide)
    )
    (property "LCSC" "C130253" (id 6) (at 29.591 24.511 0)
      (effects (font (size 0.9906 0.9906) bold italic) hide)
    )
  )

  (symbol (lib_id "device:C_Small") (at 20.447 33.528 0) (mirror x) (unit 1)
    (in_bom yes) (on_board yes)
    (uuid "00000000-0000-0000-0000-00005c65286c")
    (property "Reference" "C1" (id 0) (at 23.241 31.623 0)
      (effects (font (size 1.4986 1.4986) bold italic))
    )
    (property "Value" "6pF" (id 1) (at 22.352 35.306 0)
      (effects (font (size 0.9906 0.9906) bold italic))
    )
    (property "Footprint" "Capacitor_SMD:C_0603_1608Metric" (id 2) (at 20.447 33.528 0)
      (effects (font (size 0.9906 0.9906) bold italic) hide)
    )
    (property "Datasheet" "~" (id 3) (at 20.447 33.528 0)
      (effects (font (size 0.9906 0.9906) bold italic) hide)
    )
  )

  (symbol (lib_id "device:C_Small") (at 38.481 33.655 0) (mirror x) (unit 1)
    (in_bom yes) (on_board yes)
    (uuid "00000000-0000-0000-0000-00005c6527e4")
    (property "Reference" "C2" (id 0) (at 41.275 31.75 0)
      (effects (font (size 1.4986 1.4986) bold italic))
    )
    (property "Value" "6pF" (id 1) (at 40.513 35.306 0)
      (effects (font (size 0.9906 0.9906) bold italic))
    )
    (property "Footprint" "Capacitor_SMD:C_0603_1608Metric" (id 2) (at 38.481 33.655 0)
      (effects (font (size 0.9906 0.9906) bold italic) hide)
    )
    (property "Datasheet" "~" (id 3) (at 38.481 33.655 0)
      (effects (font (size 0.9906 0.9906) bold italic) hide)
    )
  )

  (symbol (lib_id "device:C_Small") (at 40.259 78.105 0) (unit 1)
    (in_bom yes) (on_board yes)
    (uuid "00000000-0000-0000-0000-00005ef3a576")
    (property "Reference" "C5" (id 0) (at 43.18 75.946 0)
      (effects (font (size 1.4986 1.4986) bold italic))
    )
    (property "Value" "100nF" (id 1) (at 43.561 80.01 0)
      (effects (font (size 0.9906 0.9906) bold italic))
    )
    (property "Footprint" "Capacitor_SMD:C_0603_1608Metric" (id 2) (at 40.259 78.105 0)
      (effects (font (size 0.9906 0.9906) bold italic) hide)
    )
    (property "Datasheet" "~" (id 3) (at 40.259 78.105 0)
      (effects (font (size 0.9906 0.9906) bold italic) hide)
    )
  )

  (symbol (lib_id "device:C_Small") (at 40.513 110.998 0) (unit 1)
    (in_bom yes) (on_board yes)
    (uuid "00000000-0000-0000-0000-00005ef51b9a")
    (property "Reference" "C6" (id 0) (at 43.434 108.839 0)
      (effects (font (size 1.4986 1.4986) bold italic))
    )
    (property "Value" "100nF" (id 1) (at 43.688 112.903 0)
      (effects (font (size 0.9906 0.9906) bold italic))
    )
    (property "Footprint" "Capacitor_SMD:C_0603_1608Metric" (id 2) (at 40.513 110.998 0)
      (effects (font (size 0.9906 0.9906) bold italic) hide)
    )
    (property "Datasheet" "~" (id 3) (at 40.513 110.998 0)
      (effects (font (size 0.9906 0.9906) bold italic) hide)
    )
  )

  (symbol (lib_id "device:C_Small") (at 53.34 33.782 180) (unit 1)
    (in_bom yes) (on_board yes)
    (uuid "00000000-0000-0000-0000-00005c6420d9")
    (property "Reference" "C3" (id 0) (at 56.134 31.877 0)
      (effects (font (size 1.4986 1.4986) bold italic))
    )
    (property "Value" "18pF" (id 1) (at 55.753 35.687 0)
      (effects (font (size 0.9906 0.9906) bold italic))
    )
    (property "Footprint" "Capacitor_SMD:C_0603_1608Metric" (id 2) (at 53.34 33.782 0)
      (effects (font (size 0.9906 0.9906) bold italic) hide)
    )
    (property "Datasheet" "~" (id 3) (at 53.34 33.782 0)
      (effects (font (size 0.9906 0.9906) bold italic) hide)
    )
  )

  (symbol (lib_id "device:C_Small") (at 72.517 33.782 180) (unit 1)
    (in_bom yes) (on_board yes)
    (uuid "00000000-0000-0000-0000-00005c6420d2")
    (property "Reference" "C4" (id 0) (at 75.565 31.75 0)
      (effects (font (size 1.4986 1.4986) bold italic))
    )
    (property "Value" "18pF" (id 1) (at 75.057 35.814 0)
      (effects (font (size 0.9906 0.9906) bold italic))
    )
    (property "Footprint" "Capacitor_SMD:C_0603_1608Metric" (id 2) (at 72.517 33.782 0)
      (effects (font (size 0.9906 0.9906) bold italic) hide)
    )
    (property "Datasheet" "~" (id 3) (at 72.517 33.782 0)
      (effects (font (size 0.9906 0.9906) bold italic) hide)
    )
  )

  (symbol (lib_id "device:C_Small") (at 171.958 43.434 0) (unit 1)
    (in_bom yes) (on_board yes)
    (uuid "00000000-0000-0000-0000-00005c90c5d8")
    (property "Reference" "C12" (id 0) (at 174.498 41.402 0)
      (effects (font (size 1.4986 1.4986) bold italic))
    )
    (property "Value" "100nF" (id 1) (at 174.879 45.339 0)
      (effects (font (size 0.9906 0.9906) bold italic))
    )
    (property "Footprint" "Capacitor_SMD:C_0603_1608Metric" (id 2) (at 171.958 43.434 0)
      (effects (font (size 0.9906 0.9906) bold italic) hide)
    )
    (property "Datasheet" "~" (id 3) (at 171.958 43.434 0)
      (effects (font (size 0.9906 0.9906) bold italic) hide)
    )
  )

  (symbol (lib_id "device:C_Small") (at 181.483 43.434 0) (unit 1)
    (in_bom yes) (on_board yes)
    (uuid "00000000-0000-0000-0000-00005c90c682")
    (property "Reference" "C13" (id 0) (at 184.15 41.402 0)
      (effects (font (size 1.4986 1.4986) bold italic))
    )
    (property "Value" "100nF" (id 1) (at 184.404 45.339 0)
      (effects (font (size 0.9906 0.9906) bold italic))
    )
    (property "Footprint" "Capacitor_SMD:C_0603_1608Metric" (id 2) (at 181.483 43.434 0)
      (effects (font (size 0.9906 0.9906) bold italic) hide)
    )
    (property "Datasheet" "~" (id 3) (at 181.483 43.434 0)
      (effects (font (size 0.9906 0.9906) bold italic) hide)
    )
  )

  (symbol (lib_id "device:C_Small") (at 191.008 43.434 0) (unit 1)
    (in_bom yes) (on_board yes)
    (uuid "00000000-0000-0000-0000-00005c90c69e")
    (property "Reference" "C14" (id 0) (at 193.802 41.402 0)
      (effects (font (size 1.4986 1.4986) bold italic))
    )
    (property "Value" "100nF" (id 1) (at 193.802 45.339 0)
      (effects (font (size 0.9906 0.9906) bold italic))
    )
    (property "Footprint" "Capacitor_SMD:C_0603_1608Metric" (id 2) (at 191.008 43.434 0)
      (effects (font (size 0.9906 0.9906) bold italic) hide)
    )
    (property "Datasheet" "~" (id 3) (at 191.008 43.434 0)
      (effects (font (size 0.9906 0.9906) bold italic) hide)
    )
  )

  (symbol (lib_id "device:C_Small") (at 199.898 43.434 0) (unit 1)
    (in_bom yes) (on_board yes)
    (uuid "00000000-0000-0000-0000-00005c90c6ce")
    (property "Reference" "C15" (id 0) (at 202.565 41.275 0)
      (effects (font (size 1.4986 1.4986) bold italic))
    )
    (property "Value" "100nF" (id 1) (at 202.819 45.339 0)
      (effects (font (size 0.9906 0.9906) bold italic))
    )
    (property "Footprint" "Capacitor_SMD:C_0603_1608Metric" (id 2) (at 199.898 43.434 0)
      (effects (font (size 0.9906 0.9906) bold italic) hide)
    )
    (property "Datasheet" "~" (id 3) (at 199.898 43.434 0)
      (effects (font (size 0.9906 0.9906) bold italic) hide)
    )
  )

  (symbol (lib_id "device:C_Small") (at 209.423 43.434 0) (unit 1)
    (in_bom yes) (on_board yes)
    (uuid "00000000-0000-0000-0000-00005c90c6f9")
    (property "Reference" "C16" (id 0) (at 212.09 41.402 0)
      (effects (font (size 1.4986 1.4986) bold italic))
    )
    (property "Value" "100nF" (id 1) (at 212.471 45.339 0)
      (effects (font (size 0.9906 0.9906) bold italic))
    )
    (property "Footprint" "Capacitor_SMD:C_0603_1608Metric" (id 2) (at 209.423 43.434 0)
      (effects (font (size 0.9906 0.9906) bold italic) hide)
    )
    (property "Datasheet" "~" (id 3) (at 209.423 43.434 0)
      (effects (font (size 0.9906 0.9906) bold italic) hide)
    )
  )

  (symbol (lib_id "device:Ferrite_Bead_Small") (at 160.655 49.276 0) (unit 1)
    (in_bom yes) (on_board yes)
    (uuid "00000000-0000-0000-0000-00005c90c759")
    (property "Reference" "L1" (id 0) (at 164.084 47.625 0)
      (effects (font (size 1.4986 1.4986) bold italic))
    )
    (property "Value" "FCB" (id 1) (at 164.084 51.562 0)
      (effects (font (size 0.9906 0.9906) bold italic))
    )
    (property "Footprint" "Inductor_SMD:L_0603_1608Metric" (id 2) (at 158.877 49.276 90)
      (effects (font (size 0.9906 0.9906) bold italic) hide)
    )
    (property "Datasheet" "~" (id 3) (at 160.655 49.276 0)
      (effects (font (size 0.9906 0.9906) bold italic) hide)
    )
    (property "MOUSER" "81-BLM18PG121SN1D" (id 4) (at 160.655 49.276 0)
      (effects (font (size 0.9906 0.9906) bold italic) hide)
    )
    (property "LCSC" "C14709" (id 5) (at 160.655 49.276 0)
      (effects (font (size 0.9906 0.9906) bold italic) hide)
    )
    (property "FAB REF" "BLM18PG121SN1D" (id 6) (at 168.148 53.594 0)
      (effects (font (size 0.9906 0.9906) bold italic))
    )
  )

  (symbol (lib_id "device:Crystal_GND2_Small") (at 63.246 24.638 0) (unit 1)
    (in_bom yes) (on_board yes)
    (uuid "00000000-0000-0000-0000-00005eb75c75")
    (property "Reference" "Y2" (id 0) (at 63.246 19.431 0)
      (effects (font (size 1.4986 1.4986) bold italic))
    )
    (property "Value" "24MHz" (id 1) (at 63.246 21.971 0)
      (effects (font (size 0.9906 0.9906) bold italic))
    )
    (property "Footprint" "MyFootPrint:OSC_4P_2x1_6" (id 2) (at 63.246 24.638 0)
      (effects (font (size 0.9906 0.9906) bold italic) hide)
    )
    (property "Datasheet" "~" (id 3) (at 63.246 24.638 0)
      (effects (font (size 0.9906 0.9906) bold italic) hide)
    )
    (property "FAB REF" "XRCGB24M000F3M00R0" (id 4) (at 63.5 28.702 0)
      (effects (font (size 0.9906 0.9906) bold italic))
    )
    (property "MOUSER" "81-XRCGB24M000F3G0R0" (id 5) (at 63.246 24.638 0)
      (effects (font (size 0.9906 0.9906) bold italic) hide)
    )
    (property "LCSC" "C127895" (id 6) (at 63.246 24.638 0)
      (effects (font (size 0.9906 0.9906) bold italic) hide)
    )
  )

  (symbol (lib_id "button_switch:B_Push") (at 31.75 73.406 0) (unit 1)
    (in_bom yes) (on_board yes)
    (uuid "00000000-0000-0000-0000-00005cc80df5")
    (property "Reference" "BT1" (id 0) (at 31.75 67.945 0)
      (effects (font (size 1.4986 1.4986) bold italic))
    )
    (property "Value" "BT RESET" (id 1) (at 31.75 75.184 0)
      (effects (font (size 0.9906 0.9906) bold italic))
    )
    (property "Footprint" "Button_Switch_SMD:SW_SPST_B3U-1000P" (id 2) (at 31.75 73.406 0)
      (effects (font (size 0.9906 0.9906) bold italic) hide)
    )
    (property "Datasheet" "" (id 3) (at 31.75 73.406 0)
      (effects (font (size 0.9906 0.9906) bold italic) hide)
    )
    (property "FAB REF" "B3U-1000P" (id 4) (at 31.75 77.343 0)
      (effects (font (size 0.9906 0.9906) bold italic))
    )
  )

  (symbol (lib_id "button_switch:B_Push") (at 32.004 106.426 0) (unit 1)
    (in_bom yes) (on_board yes)
    (uuid "00000000-0000-0000-0000-00005ef1cf16")
    (property "Reference" "BT2" (id 0) (at 32.004 101.092 0)
      (effects (font (size 1.4986 1.4986) bold italic))
    )
    (property "Value" "BT USER" (id 1) (at 32.004 108.331 0)
      (effects (font (size 0.9906 0.9906) bold italic))
    )
    (property "Footprint" "Button_Switch_SMD:SW_SPST_B3U-1000P" (id 2) (at 32.004 106.426 0)
      (effects (font (size 0.9906 0.9906) bold italic) hide)
    )
    (property "Datasheet" "" (id 3) (at 32.004 106.426 0)
      (effects (font (size 0.9906 0.9906) bold italic) hide)
    )
    (property "FAB REF" "B3U-1000P" (id 4) (at 32.004 110.617 0)
      (effects (font (size 0.9906 0.9906) bold italic))
    )
  )

  (symbol (lib_id "izirunf0-rescue:STM32F070CBTx-stm32") (at 155.575 106.426 0) (unit 1)
    (in_bom yes) (on_board yes)
    (uuid "00000000-0000-0000-0000-00005c90c55c")
    (property "Reference" "U1" (id 0) (at 85.979 63.373 0)
      (effects (font (size 1.4986 1.4986) bold italic))
    )
    (property "Value" "STM32F070CBTx" (id 1) (at 220.853 63.5 0)
      (effects (font (size 0.9906 0.9906) bold italic))
    )
    (property "Footprint" "Housings_QFP:LQFP-48_7x7mm_Pitch0.5mm" (id 2) (at 226.695 66.421 0)
      (effects (font (size 0.9906 0.9906) bold italic) hide)
    )
    (property "Datasheet" "http://www.st.com/st-web-ui/static/active/en/resource/technical/document/datasheet/DM00141386.pdf" (id 3) (at 155.575 106.426 0)
      (effects (font (size 0.9906 0.9906) bold italic) hide)
    )
    (property "FARNELL" "2750627" (id 4) (at 155.575 106.426 0)
      (effects (font (size 0.9906 0.9906) bold italic) hide)
    )
    (property "LCSC" "C74909" (id 5) (at 155.575 106.426 0)
      (effects (font (size 0.9906 0.9906) bold italic) hide)
    )
    (property "FAB REF" "STM32F030CCTx" (id 6) (at 219.202 148.971 0)
      (effects (font (size 0.9906 0.9906) bold italic))
    )
  )
)
